{
    "lastUpdate": "31 de Janeiro de 2018",
    "personal": {
        "logo": "static/logo.png",
        "name": "Henrique Hideki Kuwai",
        "subtitle": "Solteiro, brasileiro, 24 anos."
    },
    "contacts": {
        "phone": "(11) 98877-9888",
        "mail": "eu@henriquekuwai.com.br",
        "web": "henriquekuwai.com.br",
        "gitlab": "rikezenho",
        "github": "rikezenho",
        "address": "Rua Guatapará, 215 - Vila Guarani - 04310-040 - São Paulo, SP",
        "linkedin": "http://br.linkedin.com/in/henriquekuwai"
    },
    "description": "Trabalho com desenvolvimento web desde os 15 anos criando todo tipo de site e aplicação para a web. Hoje, foco mais na parte de front-end, no entanto, já atuei em cada parte de uma aplicação web.<br/><br/>Atualmente, desenvolvo o trabalho mais importante da minha carreira, atuando como líder de desenvolvimento de novas lojas na Infracommerce, empresa full-service de e-commerce. Sou curioso e autodidata por natureza, sempre em busca de novos desafios.",
    "languages": ["Português nativo/fluente", "Inglês intermediário/técnico", "Espanhol básico"],
    "school": {
        "institute": "Universidade Presbiteriana Mackenzie",
        "course": "Publicidade e Propaganda (Criação)",
        "date": "Jan/2012 - Dez/2015",
        "logo": "static/logos/mackenzie.png"
    },
    "history": [
        {
            "position": "Desenvolvedor Front-end",
            "provider": "Netshoes - Liberdade, São Paulo",
            "description": "Atuação na equipe de novos produtos da plataforma Freedom.",
            "date": "Abr/18 - Atual"
        },
        {
            "position": "Desenvolvedor Front-end",
            "provider": "Infracommerce - Vila Olímpia, São Paulo",
            "description": "Líder de desenvolvimento de novas lojas. Atuo coordenando e orientando a implantação das lojas desde o escopo até o go live; e também boto a mão na massa, criando bibliotecas e scripts utilizando Javascript, jQuery e ES6.",
            "date": "Jul/16 - Abr/18"
        },
        {
            "position": "Desenvolvedor full stack",
            "provider": "Agevole - Santo Amaro, São Paulo",
            "description": "Criação e programação de sites institucionais, portais, hotsites promocionais, integração com banco de dados, sites em WordPress, além de ferramentas para melhorar processos e também auxílio da equipe em questões de web e digital.",
            "date": "Jan/14 - Mar/16"
        },
        {
            "position": "Webdeveloper",
            "provider": "Jornal Nippak - Liberdade, São Paulo",
            "description": "Atualização do portal do Jornal, desenvolvimento de ferramentas internas para a equipe e também campanhas online.",
            "date": "Ago/12 - Mar/13"
        },
        {
            "position": "Webdesigner",
            "provider": "Agência Elementare - Vila Carrão, São Paulo",
            "description": "Estruturação e montagem de sites utilizando PHP, ASP, CSS, Javascript (framework jQuery). Desenvolvimento de painéis de controle, sistemas de gerenciamento de conteúdo e interfaces de usuário.",
            "date": "Ago/08 - Jun/10"
        }
    ],
    "complementary": [
        {
            "institute": "Alura (online)",
            "course": "Vue.js parte 2: construindo Single Page Applications",
            "date": "Dez/2017",
            "logo": "static/logos/alura.png"
        },
        {
            "institute": "Alura (online)",
            "course": "Vue.js parte 1: construindo Single Page Applications",
            "date": "Dez/2017",
            "logo": "static/logos/alura.png"
        },
        {
            "institute": "Alura (online)",
            "course": "Excel I",
            "date": "Out/2017",
            "logo": "static/logos/alura.png"
        },
        {
            "institute": "Alura (online)",
            "course": "Chrome DevTools: analise, inspecione e depure suas páginas Web",
            "date": "Fev/2017",
            "logo": "static/logos/alura.png"
        },
        {
            "institute": "Alura (online)",
            "course": "JavaScript avançado I: ES6, orientação a objetos e padrões de projetos",
            "date": "Dez/2016",
            "logo": "static/logos/alura.png"
        },
        {
            "institute": "Udemy (online)",
            "course": "Curso de UX para Webdesigners",
            "date": "Out/2014",
            "logo": "static/logos/udemy.png"
        }
    ],
    "experience": [
        "HTML", "CSS", "SASS", "Bootstrap", "Chrome Extensions", "Javascript", "ES6", "jQuery", "Git", "SVN", "Gulp", "Grunt", "JSON", "JSF", "Apache Velocity", "PHP", "MySQL", "WordPress", "Terminal", "Scrum", "Kanban", "Design responsivo", "Design de interfaces", "SEO", "Google Analytics"
    ],
    "stillLearning": [
        "Node.js", "Vue.js", "MongoDB", "Webpack", "TDD", "UX/UI"
    ],
    "softwares": [
        "SO Windows", "VS Code", "Adobe Photoshop", "Pacote Office", "Google Docs/Sheets"
    ]
}